<?xml version="1.0" standalone="no"?>
<!DOCTYPE svg PUBLIC "-//W3C//DTD SVG 20010904//EN"
 "http://www.w3.org/TR/2001/REC-SVG-20010904/DTD/svg10.dtd">
<svg version="1.0" xmlns="http://www.w3.org/2000/svg"
 width="133.000000pt" height="133.000000pt" viewBox="0 0 133.000000 133.000000"
 preserveAspectRatio="xMidYMid meet">
<metadata>
Created by potrace 1.11, written by Peter Selinger 2001-2013
</metadata>
<g transform="translate(0.000000,133.000000) scale(0.100000,-0.100000)"
fill="#000000" stroke="none">
<path d="M150 888 c0 -2 -1 -103 -3 -226 l-2 -222 42 0 42 0 -6 70 c-6 69 -6
70 19 70 20 0 28 -9 46 -53 13 -30 20 -61 16 -70 -5 -15 1 -17 45 -17 28 0 51
4 51 9 0 5 -14 40 -31 77 -25 56 -28 70 -17 79 36 27 48 60 48 131 0 63 -3 76
-26 103 -30 36 -77 51 -161 51 -35 0 -63 -1 -63 -2z m160 -98 c20 -20 27 -83
12 -107 -9 -14 -56 -33 -83 -33 -17 0 -19 8 -19 80 l0 80 35 0 c22 0 43 -8 55
-20z"/>
<path d="M442 878 c-6 -6 -12 -26 -12 -43 l0 -31 70 4 c39 2 70 1 70 -2 0 -3
-31 -69 -70 -146 -52 -103 -70 -150 -70 -180 l0 -40 109 0 c104 0 109 1 115
23 14 53 11 56 -64 59 l-69 3 70 138 c59 117 70 145 67 180 l-3 42 -100 3
c-70 2 -104 -1 -113 -10z"/>
<path d="M700 888 c-1 -2 -2 -103 -3 -226 l-2 -222 116 0 c113 0 117 1 123 23
15 55 13 57 -80 57 l-85 0 2 183 2 182 -37 3 c-20 2 -36 2 -36 0z"/>
<path d="M922 865 c-11 -14 -18 -34 -15 -44 4 -17 12 -19 55 -14 l50 6 -3
-187 -4 -186 40 0 40 0 -3 185 -4 185 34 0 c19 0 39 -5 46 -12 17 -17 25 12
14 53 l-8 34 -111 3 c-109 3 -111 2 -131 -23z"/>
</g>
</svg>
